{
  "applicationName": "DextorScripts",
  "cleanDeploy": false,
  "version": "0.1",
  "packages": {
    "packageGroup": [
      {
        "packagePath": "python_packages.txt",
        "envVersion": "PY34"
      }
    ]
  },
  "modules": {
    "moduleList": []
  },
  "scripts": {
    "scriptList": [
      {
        "file": "parallel-execution/main_parallel_script.py",
        "version": "1.0",
        "envVersion": "PY34",
        "dependentModules": [],
        "dependentPackages": {
        }
      },
      {
        "file": "parallel-execution/first_slave.py",
        "version": "1.0",
        "envVersion": "PY34",
        "dependentModules": [],
        "dependentPackages": {
        }
      },

      {
        "file": "simple/print_weekday.py",
        "version": "1.0",
        "envVersion": "PY34",
        "dependentModules": [],
        "dependentPackages": {
        }
      },

      {
        "file": "simple/profile_test.py",
        "version": "1.0",
        "envVersion": "PY34",
        "dependentModules": [],
        "dependentPackages": {
        }
      },

      {
        "file": "simple/read_input_file.py",
        "version": "1.0",
        "envVersion": "PY34",
        "dependentModules": [],
        "dependentPackages": {
        }
      },

      {
        "file": "simple/write_csv_file.py",
        "version": "1.0",
        "envVersion": "PY34",
        "dependentModules": [],
        "dependentPackages": {
        }
      },

      {
        "file": "simple/write_image_file.py",
        "version": "1.0",
        "envVersion": "PY34",
        "dependentModules": [],
        "dependentPackages": {
        }
      },

      {
        "file": "simple/py36test.py",
        "version": "1.0",
        "envVersion": "PY36",
        "dependentModules": [],
        "dependentPackages": {
        }
      }

    ]
  }
}